<?xml version="1.0" encoding="utf-8"?>
<!-- Generator: Adobe Illustrator 16.1.0, SVG Export Plug-In . SVG Version: 6.00 Build 0)  -->
<!DOCTYPE svg PUBLIC "-//W3C//DTD SVG 1.1//EN" "http://www.w3.org/Graphics/SVG/1.1/DTD/svg11.dtd">
<svg version="1.1" id="Layer_1" xmlns="http://www.w3.org/2000/svg" xmlns:xlink="http://www.w3.org/1999/xlink" x="0px" y="0px"
	 width="300px" height="300px" viewBox="0 0 300 300" enable-background="new 0 0 300 300" xml:space="preserve">
<rect width="142.5" height="158.5"/>
<path id="picture-icon_2_" fill="#FFFFFF" d="M54.64,72.523c0-2.123,1.722-3.845,3.845-3.845c2.123,0,3.845,1.722,3.845,3.845
	c0,2.124-1.722,3.845-3.845,3.845C56.362,76.369,54.64,74.647,54.64,72.523z M74.142,72.647l-6.375,9.055l-3.463-3.571
	l-9.773,11.104H85.08L74.142,72.647z M89.796,64.705v29.091H47.985V64.705H89.796 M94.833,59.667H42.947v39.167h51.886V59.667
	L94.833,59.667z"/>
<rect y="193" width="300" height="34.5"/>
<rect x="178.5" y="124" width="121.5" height="34.5"/>
<rect x="178.5" width="121.5" height="34.5"/>
<rect x="178.5" y="62" width="121.5" height="34.5"/>
<rect y="265.5" width="300" height="34.5"/>
</svg>
