<?xml version="1.0" encoding="utf-8"?>
<!-- Generator: Adobe Illustrator 16.1.0, SVG Export Plug-In . SVG Version: 6.00 Build 0)  -->
<!DOCTYPE svg PUBLIC "-//W3C//DTD SVG 1.1//EN" "http://www.w3.org/Graphics/SVG/1.1/DTD/svg11.dtd">
<svg version="1.1" id="Layer_1" xmlns="http://www.w3.org/2000/svg" xmlns:xlink="http://www.w3.org/1999/xlink" x="0px" y="0px"
	 width="300px" height="300px" viewBox="0 0 300 300" enable-background="new 0 0 300 300" xml:space="preserve">
<rect width="300" height="300"/>
<path id="picture-icon_2_" fill="#FFFFFF" d="M135.75,143.273c0-2.123,1.722-3.845,3.845-3.845c2.123,0,3.845,1.722,3.845,3.845
	c0,2.124-1.722,3.845-3.845,3.845C137.473,147.118,135.75,145.397,135.75,143.273z M155.252,143.397l-6.375,9.055l-3.463-3.571
	l-9.773,11.104h30.549L155.252,143.397z M170.906,135.454v29.091h-41.811v-29.091H170.906 M175.943,130.416h-51.886v39.167h51.886
	V130.416L175.943,130.416z"/>
</svg>
